scRNA-seq Data Analysis
…
# Calculate the PCA dimensions
vignette_cds <- preprocess_cds(vignette_cds)

Now we can run the UMAP algorithm to reduce the dimensions down to 2. There are several options available here. You should set the number of cores the algorithm will use.

# Calculate UMAP dimensions
vignette_cds <- reduce_dimension(vignette_cds, cores = 40)

Running UMAP with multiple cores will generate slightly different results each time you run it, so you want to get to this point and then save your data object with save(vignette_cds, file = "<directory>/vignette_cds.rda", compress = "gzip").

At this point it is worth exploring the cell and gene metadata to understand how things are arranged. We can use the bb_cellmeta and bb_rowmeta convenience functions to return the metadata in the form of a tibble. This is more convenient for exploring and manipulating, but if you want to modify or add back to the CDS object, you should use the form colData(CDS)$new_column <- data

# Cell metadata
bb_cellmeta(vignette_cds) 
#> # A tibble: 1,160 × 16
#>    cell_id       barcode   Size_Factor date  equipment sample   prealignment_di…
#>    <chr>         <chr>           <dbl> <chr> <chr>     <chr>               <dbl>
#>  1 AATCACGAGGAT… AATCACGA…       3.20  2021… chromium  chromiu…             9.42
#>  2 AATCACGAGTGG… AATCACGA…       0.990 2021… chromium  chromiu…            -7.10
#>  3 AATCACGCACAG… AATCACGC…       0.751 2021… chromium  chromiu…            -4.14
#>  4 AATCACGCACCA… AATCACGC…       3.08  2021… chromium  chromiu…             6.97
#>  5 AATCACGCAGGT… AATCACGC…       0.627 2021… chromium  chromiu…            -4.12
#>  6 AATCACGCATAT… AATCACGC…       0.830 2021… chromium  chromiu…            -3.56
#>  7 AATCACGGTCAA… AATCACGG…       0.931 2021… chromium  chromiu…            -4.04
#>  8 AATCACGGTTGG… AATCACGG…       0.596 2021… chromium  chromiu…            -7.70
#>  9 AATCACGTCCCG… AATCACGT…       1.16  2021… chromium  chromiu…            -3.28
#> 10 AATCACGTCGTT… AATCACGT…       0.746 2021… chromium  chromiu…            -5.68
#> # … with 1,150 more rows, and 9 more variables: prealignment_dim2 <dbl>,
#> #   leiden <fct>, partition <fct>, louvain <fct>, seurat_dim1 <dbl>,
#> #   seurat_dim2 <dbl>, seurat_celltype_l1 <chr>, seurat_celltype_l2 <chr>,
#> #   leiden_assignment <fct>

# Gene metadata
bb_rowmeta(vignette_cds)
#> # A tibble: 36,398 × 8
#>    feature_id  id    gene_short_name data_type module module_labeled supermodule
#>    <chr>       <chr> <chr>           <chr>     <fct>  <fct>          <fct>      
#>  1 ENSG000002… ENSG… MIR1302-2HG     Gene Exp… <NA>   No Module      <NA>       
#>  2 ENSG000002… ENSG… FAM138A         Gene Exp… <NA>   No Module      <NA>       
#>  3 ENSG000001… ENSG… OR4F5           Gene Exp… <NA>   No Module      <NA>       
#>  4 ENSG000002… ENSG… AL627309.1      Gene Exp… <NA>   No Module      <NA>       
#>  5 ENSG000002… ENSG… AL627309.3      Gene Exp… <NA>   No Module      <NA>       
#>  6 ENSG000002… ENSG… AL627309.2      Gene Exp… <NA>   No Module      <NA>       
#>  7 ENSG000002… ENSG… AL627309.5      Gene Exp… 1      Module 1       1          
#>  8 ENSG000002… ENSG… AL627309.4      Gene Exp… <NA>   No Module      <NA>       
#>  9 ENSG000002… ENSG… AP006222.2      Gene Exp… <NA>   No Module      <NA>       
#> 10 ENSG000002… ENSG… AL732372.1      Gene Exp… <NA>   No Module      <NA>       
#> # … with 36,388 more rows, and 1 more variable: supermodule_labeled <fct>
…
You can see that the pre-alignment dimensions are stored in the cell metadata so you can plot them later if you want.

bb_cellmeta(vignette_cds)
#> # A tibble: 1,160 × 16
#>    cell_id       barcode   Size_Factor date  equipment sample   prealignment_di…
#>    <chr>         <chr>           <dbl> <chr> <chr>     <chr>               <dbl>
#>  1 AATCACGAGGAT… AATCACGA…       3.20  2021… chromium  chromiu…             9.42
#>  2 AATCACGAGTGG… AATCACGA…       0.990 2021… chromium  chromiu…            -7.10
#>  3 AATCACGCACAG… AATCACGC…       0.751 2021… chromium  chromiu…            -4.14
#>  4 AATCACGCACCA… AATCACGC…       3.08  2021… chromium  chromiu…             6.97
#>  5 AATCACGCAGGT… AATCACGC…       0.627 2021… chromium  chromiu…            -4.12
#>  6 AATCACGCATAT… AATCACGC…       0.830 2021… chromium  chromiu…            -3.56
#>  7 AATCACGGTCAA… AATCACGG…       0.931 2021… chromium  chromiu…            -4.04
#>  8 AATCACGGTTGG… AATCACGG…       0.596 2021… chromium  chromiu…            -7.70
#>  9 AATCACGTCCCG… AATCACGT…       1.16  2021… chromium  chromiu…            -3.28
#> 10 AATCACGTCGTT… AATCACGT…       0.746 2021… chromium  chromiu…            -5.68
#> # … with 1,150 more rows, and 9 more variables: prealignment_dim2 <dbl>,
#> #   leiden <fct>, partition <fct>, louvain <fct>, seurat_dim1 <dbl>,
#> #   seurat_dim2 <dbl>, seurat_celltype_l1 <chr>, seurat_celltype_l2 <chr>,
#> #   leiden_assignment <fct>
…
Clustering

There are three clustering methods we use. Louvain (ref: PMID 30914743) are the finest/smallest, Leiden (ref: PMID 30914743) are medium, and Partitions (ref: PMID 30890159) are the largest/coarsest. We have a function to calculate all three using default parameters and add them explicitly into the CDS cell metadata. In addition, this function will calculate the top markers for each and produce a csv file which you can look at externally or read back into R as I do here. Usually you want to read it back into R so when you identify what the clusters are, you can label them in the table.

Using this function requires using default clustering parameters in the underlying monocle functions. If you want to modify those (usually not necessary) you need to use the original monocle functions.

# Identify clusters and calculate top markers
marker_file <- tempfile()
vignette_cds <- bb_triplecluster(vignette_cds, n_top_markers = 50, outfile = marker_file, n_cores = 8)
vignette_top_markers <- read_csv(marker_file)

vignette_top_markers
#> # A tibble: 1,100 × 11
#>    gene_id         gene_short_name cluster_method cell_group  marker_score
#>    <chr>           <chr>           <chr>          <chr>              <dbl>
#>  1 ENSG00000265972 TXNIP           partition      partition 1        0.998
#>  2 ENSG00000081237 PTPRC           partition      partition 1        0.997
#>  3 ENSG00000163041 H3F3A           partition      partition 1        0.997
#>  4 ENSG00000034510 TMSB10          partition      partition 1        1    
#>  5 ENSG00000114942 EEF1B2          partition      partition 1        0.991
#>  6 ENSG00000187514 PTMA            partition      partition 1        1    
#>  7 ENSG00000232112 TMA7            partition      partition 1        0.984
#>  8 ENSG00000269028 MTRNR2L12       partition      partition 1        0.998
#>  9 ENSG00000145741 BTF3            partition      partition 1        0.985
#> 10 ENSG00000127184 COX7C           partition      partition 1        0.991
#> # … with 1,090 more rows, and 6 more variables: mean_expression <dbl>,
#> #   fraction_expressing <dbl>, specificity <dbl>, pseudo_R2 <dbl>,
#> #   marker_test_p_value <dbl>, marker_test_q_value <dbl>
…
Gene modules

Gene modules are groups of genes that are similarly co-regulated from cell to cell in the data set. We use monocle functions to identify gene modules and store them as gene metadata.

Gene modules in this sense can only be defined using single cell data. Essentially the algorithm reverses the UMAP calculation and plots “coordinates” for each gene according to the cell it is expressed in. Then it clusters the genes according to the UMAP coordinates just like we did for the cells. These are modules and super modules.

Gene modules can have dozens or thousands of genes depending on your dataset. If they are evenly expressed across all cells (like housekeeping genes), some genes may not end up in a module.

Note: this is a computationally-intensive operation which may overload your computer if you use too many cores. It is also non-deterministic so you need to save the CDS object when you are done.

# Identify gene modules and add them to the gene metadata.
vignette_cds <- bb_gene_modules(vignette_cds, n_cores = 24)

bb_rowmeta(vignette_cds)
#> # A tibble: 36,398 × 8
#>    feature_id  id    gene_short_name data_type module module_labeled supermodule
#>    <chr>       <chr> <chr>           <chr>     <fct>  <fct>          <fct>      
#>  1 ENSG000002… ENSG… MIR1302-2HG     Gene Exp… <NA>   No Module      <NA>       
#>  2 ENSG000002… ENSG… FAM138A         Gene Exp… <NA>   No Module      <NA>       
#>  3 ENSG000001… ENSG… OR4F5           Gene Exp… <NA>   No Module      <NA>       
#>  4 ENSG000002… ENSG… AL627309.1      Gene Exp… <NA>   No Module      <NA>       
#>  5 ENSG000002… ENSG… AL627309.3      Gene Exp… <NA>   No Module      <NA>       
#>  6 ENSG000002… ENSG… AL627309.2      Gene Exp… <NA>   No Module      <NA>       
#>  7 ENSG000002… ENSG… AL627309.5      Gene Exp… 1      Module 1       1          
#>  8 ENSG000002… ENSG… AL627309.4      Gene Exp… <NA>   No Module      <NA>       
#>  9 ENSG000002… ENSG… AP006222.2      Gene Exp… <NA>   No Module      <NA>       
#> 10 ENSG000002… ENSG… AL732372.1      Gene Exp… <NA>   No Module      <NA>       
#> # … with 36,388 more rows, and 1 more variable: supermodule_labeled <fct>
…
This is an optional step you can use to generate automatic cell labels. You need to take these results with a grain of salt and always explore the automated cell labels before believing them.

For example if you are looking at leukemia cells and you generate cell labels based on a normal PBMC dataset, you will provide normal celltype labels to leukemia cells which is misleading.

Another issue is that there are many programs that claim to be able to do this but only Seurat seems to be useful in my opinion. However the Seurat people have put most of their effort in this area into developing web apps which have significant limitations for us. Their raw reference data is difficult to find and implement and is only available for human PBMC. For now, we can only use this technique for human PBMC.

If you want to use this, you need to download this file: https://atlas.fredhutch.org/data/nygc/multimodal/pbmc_multimodal.h5seurat. It is about 2GB so we don’t even distribute it with blaseRdata. You need to download that and put it somewhere on your system where you are running the analysis. Then run this, substituting in the appropriate file path:

# Annotate the PBMC data
vignette_cds <- bb_seurat_anno(vignette_cds, reference = "~/workspace_pipelines/sc_refdata/seurat_pbmc_reference_20210506/pbmc_multimodal.h5seurat")

This function has added two celltype assignments to the cell metadata. It has also added suerat umap dims. These are where the cells would’ve landed if they were processed in the reference dataset.

bb_cellmeta(vignette_cds)
#> # A tibble: 1,160 × 16
#>    cell_id       barcode   Size_Factor date  equipment sample   prealignment_di…
#>    <chr>         <chr>           <dbl> <chr> <chr>     <chr>               <dbl>
#>  1 AATCACGAGGAT… AATCACGA…       3.20  2021… chromium  chromiu…             9.42
#>  2 AATCACGAGTGG… AATCACGA…       0.990 2021… chromium  chromiu…            -7.10
#>  3 AATCACGCACAG… AATCACGC…       0.751 2021… chromium  chromiu…            -4.14
#>  4 AATCACGCACCA… AATCACGC…       3.08  2021… chromium  chromiu…             6.97
#>  5 AATCACGCAGGT… AATCACGC…       0.627 2021… chromium  chromiu…            -4.12
#>  6 AATCACGCATAT… AATCACGC…       0.830 2021… chromium  chromiu…            -3.56
#>  7 AATCACGGTCAA… AATCACGG…       0.931 2021… chromium  chromiu…            -4.04
#>  8 AATCACGGTTGG… AATCACGG…       0.596 2021… chromium  chromiu…            -7.70
#>  9 AATCACGTCCCG… AATCACGT…       1.16  2021… chromium  chromiu…            -3.28
#> 10 AATCACGTCGTT… AATCACGT…       0.746 2021… chromium  chromiu…            -5.68
#> # … with 1,150 more rows, and 9 more variables: prealignment_dim2 <dbl>,
#> #   leiden <fct>, partition <fct>, louvain <fct>, seurat_dim1 <dbl>,
#> #   seurat_dim2 <dbl>, seurat_celltype_l1 <chr>, seurat_celltype_l2 <chr>,
#> #   leiden_assignment <fct>
…
# Detailed column headers for the results tables.
vignette_pseudobulk_res$Header 
#> [1] "mean of normalized counts for all samples"                
#> [2] "log2 fold change (MLE): leiden_assignment T_NK vs DC_Mono"
#> [3] "standard error: leiden_assignment T_NK vs DC_Mono"        
#> [4] "Wald statistic: leiden_assignment T_NK vs DC_Mono"        
#> [5] "Wald test p-value: leiden_assignment T_NK vs DC_Mono"     
#> [6] "BH adjusted p-values"

# Differential expression results.  Positive L2FC indicates up in T/NK vs DC/Mono

vignette_pseudobulk_res$Result %>%
  filter(log2FoldChange > 0) %>%
  arrange(padj)
#> # A tibble: 6,867 × 8
#>    id             gene_short_name baseMean log2FoldChange  lfcSE  stat    pvalue
#>    <chr>          <chr>              <dbl>          <dbl>  <dbl> <dbl>     <dbl>
#>  1 ENSG000000085… IL32                727.           6.08 0.138   44.0 0        
#>  2 ENSG000001672… CD3D                418.           5.81 0.166   35.0 1.23e-268
#>  3 ENSG000001149… EEF1B2             2433.           1.81 0.0578  31.4 3.87e-216
#>  4 ENSG000002477… PCED1B-AS1          320.           4.44 0.146   30.4 2.36e-203
#>  5 ENSG000002117… TRBC2               357.           5.67 0.187   30.3 2.66e-201
#>  6 ENSG000002777… TRAC                276.           5.63 0.187   30.2 5.51e-200
#>  7 ENSG000001271… BCL11B              277.           5.97 0.199   30.1 1.13e-198
#>  8 ENSG000001117… LDHB                368.           2.91 0.0982  29.6 2.80e-192
#>  9 ENSG000001988… CD3E                290.           6.02 0.204   29.6 6.28e-192
#> 10 ENSG000002715… CCL5                295.           5.44 0.188   28.8 6.53e-183
#> # … with 6,857 more rows, and 1 more variable: padj <dbl>
  
vignette_pseudobulk_res$Result %>%
  filter(log2FoldChange < 0) %>%
  arrange(padj)
#> # A tibble: 6,967 × 8
#>    id          gene_short_name baseMean log2FoldChange  lfcSE  stat pvalue  padj
#>    <chr>       <chr>              <dbl>          <dbl>  <dbl> <dbl>  <dbl> <dbl>
#>  1 ENSG000001… CTSS               2502.          -5.11 0.0940 -54.3      0     0
#>  2 ENSG000001… S100A9             6297.          -5.80 0.0835 -69.5      0     0
#>  3 ENSG000001… S100A8             3384.          -5.82 0.115  -50.6      0     0
#>  4 ENSG000000… CD74               3478.          -4.23 0.0759 -55.7      0     0
#>  5 ENSG000002… LST1                633.          -4.48 0.116  -38.6      0     0
#>  6 ENSG000002… AIF1               1030.          -4.36 0.0982 -44.4      0     0
#>  7 ENSG000002… HLA-DRA            3382.          -5.48 0.109  -50.2      0     0
#>  8 ENSG000002… HLA-DPA1           1101.          -4.83 0.128  -37.7      0     0
#>  9 ENSG000001… PSAP                990.          -4.39 0.0970 -45.3      0     0
#> 10 ENSG000000… LYZ                5176.          -6.44 0.132  -48.8      0     0
#> # … with 6,957 more rows
…
